<?xml version="1.0" encoding="UTF-8" standalone="no"?>
<!-- Created with Inkscape (http://www.inkscape.org/) -->

<svg
   xmlns:osb="http://www.openswatchbook.org/uri/2009/osb"
   xmlns:dc="http://purl.org/dc/elements/1.1/"
   xmlns:cc="http://creativecommons.org/ns#"
   xmlns:rdf="http://www.w3.org/1999/02/22-rdf-syntax-ns#"
   xmlns:svg="http://www.w3.org/2000/svg"
   xmlns="http://www.w3.org/2000/svg"
   xmlns:xlink="http://www.w3.org/1999/xlink"
   xmlns:sodipodi="http://sodipodi.sourceforge.net/DTD/sodipodi-0.dtd"
   xmlns:inkscape="http://www.inkscape.org/namespaces/inkscape"
   width="744.09448819"
   height="1052.3622047"
   id="svg2"
   version="1.1"
   inkscape:version="0.48.4 r9939"
   sodipodi:docname="box.svg"
   inkscape:export-filename="/mnt/dati/Manager/src/glade/box.png"
   inkscape:export-xdpi="89.939705"
   inkscape:export-ydpi="89.939705">
  <defs
     id="defs4">
    <linearGradient
       id="linearGradient5483"
       osb:paint="solid">
      <stop
         style="stop-color:#004200;stop-opacity:1;"
         offset="0"
         id="stop5485" />
    </linearGradient>
    <linearGradient
       id="linearGradient5451">
      <stop
         style="stop-color:#39612d;stop-opacity:1;"
         offset="0"
         id="stop5453" />
      <stop
         id="stop5459"
         offset="0.5"
         style="stop-color:#1c3016;stop-opacity:0.49803922;" />
      <stop
         style="stop-color:#000000;stop-opacity:0;"
         offset="1"
         id="stop5455" />
    </linearGradient>
    <linearGradient
       id="linearGradient5437">
      <stop
         style="stop-color:#005d00;stop-opacity:1;"
         offset="0"
         id="stop5439" />
      <stop
         style="stop-color:#005d00;stop-opacity:0;"
         offset="1"
         id="stop5441" />
    </linearGradient>
    <linearGradient
       id="linearGradient5373">
      <stop
         id="stop5465"
         offset="0"
         style="stop-color:#089d00;stop-opacity:1;" />
      <stop
         style="stop-color:#00ff00;stop-opacity:0.12857144;"
         offset="1"
         id="stop5377" />
    </linearGradient>
    <linearGradient
       id="linearGradient5367"
       osb:paint="solid">
      <stop
         style="stop-color:#000000;stop-opacity:1;"
         offset="0"
         id="stop5369" />
    </linearGradient>
    <linearGradient
       id="linearGradient5281"
       osb:paint="solid">
      <stop
         style="stop-color:#000047;stop-opacity:1;"
         offset="0"
         id="stop5283" />
    </linearGradient>
    <linearGradient
       id="linearGradient5213"
       osb:paint="solid">
      <stop
         style="stop-color:#002e00;stop-opacity:1;"
         offset="0"
         id="stop5215" />
    </linearGradient>
    <linearGradient
       id="linearGradient3767">
      <stop
         style="stop-color:#002e00;stop-opacity:1;"
         offset="0"
         id="stop3769" />
      <stop
         id="stop3775"
         offset="0.80047894"
         style="stop-color:#002e0c;stop-opacity:0.49803922;" />
      <stop
         style="stop-color:#002f18;stop-opacity:0;"
         offset="1"
         id="stop3771" />
    </linearGradient>
    <linearGradient
       inkscape:collect="always"
       xlink:href="#linearGradient5483"
       id="linearGradient5487"
       x1="27.886664"
       y1="21.804842"
       x2="154.76761"
       y2="21.804842"
       gradientUnits="userSpaceOnUse" />
  </defs>
  <sodipodi:namedview
     id="base"
     pagecolor="#ffffff"
     bordercolor="#666666"
     borderopacity="1.0"
     inkscape:pageopacity="0.0"
     inkscape:pageshadow="2"
     inkscape:zoom="3.959798"
     inkscape:cx="47.187773"
     inkscape:cy="1003.7825"
     inkscape:document-units="px"
     inkscape:current-layer="layer1"
     showgrid="false"
     inkscape:window-width="1366"
     inkscape:window-height="712"
     inkscape:window-x="-4"
     inkscape:window-y="-4"
     inkscape:window-maximized="1"
     inkscape:snap-bbox="true"
     inkscape:snap-global="true"
     inkscape:snap-nodes="false" />
  <metadata
     id="metadata7">
    <rdf:RDF>
      <cc:Work
         rdf:about="">
        <dc:format>image/svg+xml</dc:format>
        <dc:type
           rdf:resource="http://purl.org/dc/dcmitype/StillImage" />
        <dc:title></dc:title>
      </cc:Work>
    </rdf:RDF>
  </metadata>
  <g
     inkscape:label="Livello 1"
     inkscape:groupmode="layer"
     id="layer1"
     style="display:inline;stroke:none;stroke-width:0;stroke-miterlimit:4;stroke-dasharray:none;stroke-opacity:1"
     inkscape:export-filename="/mnt/dati/Manager/src/glade/boxes/1.png"
     inkscape:export-xdpi="90"
     inkscape:export-ydpi="90">
    <rect
       style="opacity:0.85507246000000003;fill:none;fill-opacity:1;fill-rule:evenodd;stroke:none;stroke-width:0;stroke-linecap:butt;stroke-linejoin:bevel;stroke-miterlimit:4;stroke-opacity:1;stroke-dasharray:none;stroke-dashoffset:0"
       id="rect5323"
       width="120"
       height="50"
       x="2.2728424"
       y="8.6220713"
       inkscape:export-filename="/home/daniela/Scrivania/1.png"
       inkscape:export-xdpi="90"
       inkscape:export-ydpi="90" />
    <text
       xml:space="preserve"
       style="font-size:51.53343200999999141px;font-style:normal;font-variant:normal;font-weight:normal;font-stretch:normal;line-height:125%;letter-spacing:0px;word-spacing:0px;fill:#007500;fill-opacity:1;stroke:none;font-family:Verdana;-inkscape-font-specification:Verdana;stroke-width:0;stroke-miterlimit:4;stroke-dasharray:none;stroke-opacity:1"
       x="27.861465"
       y="28.103119"
       id="text2985"
       sodipodi:linespacing="125%"
       inkscape:export-filename="/home/daniela/Scrivania/1.png"
       inkscape:export-xdpi="90"
       inkscape:export-ydpi="90"
       transform="scale(0.67134767,1.4895412)"><tspan
         sodipodi:role="line"
         id="tspan2987"
         x="27.861465"
         y="28.103119"
         style="font-size:15.46002960000000037px;font-weight:bold;fill:#007500;fill-opacity:1;-inkscape-font-specification:Verdana Bold;stroke:none;stroke-width:0;stroke-miterlimit:4;stroke-dasharray:none;stroke-opacity:1">CONJUNCTURE</tspan></text>
  </g>
</svg>
